{"pagination":{"links":{"next":"https://sapl.saogoncalodoamarante.ce.leg.br/api/materia/autoria/?page=2","previous":null},"previous_page":null,"next_page":2,"start_index":1,"end_index":10,"total_entries":3913,"total_pages":392,"page":1},"results":[{"id":233,"__str__":"Autoria: Ailson - Indica\u00e7\u00e3o n\u00ba 32 de 2018","metadata":{},"primeiro_autor":true,"autor":7,"materia":207},{"id":289,"__str__":"Autoria: Ailson - Indica\u00e7\u00e3o n\u00ba 59 de 2018","metadata":{},"primeiro_autor":true,"autor":7,"materia":239},{"id":36,"__str__":"Autoria: Ailson - Indica\u00e7\u00e3o n\u00ba 2 de 2017","metadata":{},"primeiro_autor":true,"autor":7,"materia":34},{"id":167,"__str__":"Autoria: Ailson - Projeto de Lei Ordin\u00e1ria n\u00ba 13 de 2018","metadata":{},"primeiro_autor":true,"autor":7,"materia":152},{"id":51,"__str__":"Autoria: Ailson - Indica\u00e7\u00e3o n\u00ba 12 de 2017","metadata":{},"primeiro_autor":true,"autor":7,"materia":35},{"id":288,"__str__":"Autoria: Ailson - Indica\u00e7\u00e3o n\u00ba 58 de 2018","metadata":{},"primeiro_autor":true,"autor":7,"materia":238},{"id":34,"__str__":"Autoria: Ailson - Indica\u00e7\u00e3o n\u00ba 100 de 2017","metadata":{},"primeiro_autor":true,"autor":7,"materia":32},{"id":35,"__str__":"Autoria: Ailson - Indica\u00e7\u00e3o n\u00ba 1 de 2017","metadata":{},"primeiro_autor":true,"autor":7,"materia":33},{"id":293,"__str__":"Autoria: Ailson - Indica\u00e7\u00e3o n\u00ba 63 de 2018","metadata":{},"primeiro_autor":true,"autor":7,"materia":243},{"id":292,"__str__":"Autoria: Ailson - Indica\u00e7\u00e3o n\u00ba 62 de 2018","metadata":{},"primeiro_autor":true,"autor":7,"materia":242}]}