{"pagination":{"links":{"next":"https://sapl.saogoncalodoamarante.ce.leg.br/api/sessao/expedientemateria/?page=2","previous":null},"previous_page":null,"next_page":2,"start_index":1,"end_index":10,"total_entries":865,"total_pages":87,"page":1},"results":[{"id":19,"__str__":"Ordem do Dia/Expediente: 1 - Projeto de Lei Ordin\u00e1ria n\u00ba 12 de 2018 em 7\u00aa Sess\u00e3o Ordin\u00e1ria do 1\u00ba Semestre de 2018 da 2\u00aa Sess\u00e3o Legislativa da 18\u00aa Legislatura","metadata":{},"data_ordem":"2018-03-23","observacao":"AUTORIZA A ABERTURA DE CR\u00c9DITO ADICIONAL ESPECIAL AO VIGENTE OR\u00c7AMENTO DA SEGURIDADE SOCIAL E D\u00c1 OUTRAS PROVID\u00caNCIAS.","numero_ordem":1,"resultado":"","tipo_votacao":1,"votacao_aberta":null,"registro_aberto":null,"sessao_plenaria":14,"materia":131,"tramitacao":null},{"id":20,"__str__":"Ordem do Dia/Expediente: 1 - Projeto de Lei Ordin\u00e1ria n\u00ba 11 de 2018 em 8\u00aa Sess\u00e3o Ordin\u00e1ria do 1\u00ba Semestre de 2018 da 2\u00aa Sess\u00e3o Legislativa da 18\u00aa Legislatura","metadata":{},"data_ordem":"2018-04-06","observacao":"DISP\u00d5E SOBRE A EQUIPARA\u00c7\u00c3O DO SAL\u00c1RIO BASE DO CARGO DE FISCAL DE OBRAS E FISCAL DE OBRAS COM CNH, NA FORMA QUE INDICA E D\u00c1 OUTRAS PROVID\u00caNCIAS.","numero_ordem":1,"resultado":"","tipo_votacao":1,"votacao_aberta":null,"registro_aberto":null,"sessao_plenaria":15,"materia":151,"tramitacao":null},{"id":5,"__str__":"Ordem do Dia/Expediente: 1 - Projeto de Lei Ordin\u00e1ria n\u00ba 12 de 2017 em 15\u00aa Sess\u00e3o Ordin\u00e1ria do 2\u00ba Semestre de 2017 da 1\u00aa Sess\u00e3o Legislativa da 18\u00aa Legislatura","metadata":{},"data_ordem":"2017-12-08","observacao":"ALTERA A ESTRUTURA ADMINISTRATIVA DA C\u00c2MARA MUNICIPAL DE S\u00c3O GON\u00c7ALO DO AMARANTE E AS RESPECTIVAS LEGISLA\u00c7\u00d5ES MUNICIPAIS E D\u00c1 OUTRAS PROVID\u00caNCIAS.","numero_ordem":1,"resultado":"","tipo_votacao":1,"votacao_aberta":null,"registro_aberto":null,"sessao_plenaria":4,"materia":16,"tramitacao":null},{"id":15,"__str__":"Ordem do Dia/Expediente: 1 - Projeto de Lei Ordin\u00e1ria n\u00ba 7 de 2018 em 4\u00aa Sess\u00e3o Ordin\u00e1ria do 1\u00ba Semestre de 2018 da 2\u00aa Sess\u00e3o Legislativa da 18\u00aa Legislatura","metadata":{},"data_ordem":"2018-03-02","observacao":"DISP\u00d5E SOBRE ALTERA\u00c7\u00c3O NA ESTRUTURA ORGANIZACIONAL DA ADMINISTRA\u00c7\u00c3O MUNICIPAL, NOTADAMENTE EM RELA\u00c7\u00c3O \u00c0 ESTRUTURA ADMINISTRATIVA DA SECRETARIA DE FINAN\u00c7AS DO MUNIC\u00cdPIO DE S\u00c3O GON\u00c7ALO DO AMARANTE, CRIANDO CARGOS, NA MEDIDA EM QUE D\u00c1 OUTRAS PROVID\u00caNCIAS.","numero_ordem":1,"resultado":"","tipo_votacao":1,"votacao_aberta":null,"registro_aberto":null,"sessao_plenaria":11,"materia":43,"tramitacao":null},{"id":1,"__str__":"Ordem do Dia/Expediente: 1 - Mo\u00e7\u00e3o n\u00ba 4 de 2017 em 13\u00aa Sess\u00e3o Ordin\u00e1ria do 2\u00ba Semestre de 2017 da 1\u00aa Sess\u00e3o Legislativa da 18\u00aa Legislatura","metadata":{},"data_ordem":"2017-11-17","observacao":"MANIFESTA REP\u00daDIO E INDIGNA\u00c7\u00c3O A PERFURA\u00c7\u00c3O DE PO\u00c7OS","numero_ordem":1,"resultado":"","tipo_votacao":1,"votacao_aberta":null,"registro_aberto":null,"sessao_plenaria":2,"materia":2,"tramitacao":null},{"id":11,"__str__":"Ordem do Dia/Expediente: 1 - Projeto de Lei Ordin\u00e1ria n\u00ba 3 de 2018 em 2\u00aa Sess\u00e3o Ordin\u00e1ria do 1\u00ba Semestre de 2018 da 2\u00aa Sess\u00e3o Legislativa da 18\u00aa Legislatura","metadata":{},"data_ordem":"2018-02-09","observacao":"DISP\u00d5E SOBRE A FIXA\u00c7\u00c3O EM LOCAL P\u00daBLICO E VIS\u00cdVEL DE CAIXA DE SUGEST\u00d5ES/RECLAMA\u00c7\u00d5ES DE ATENDIMENTO EM TODOS OS \u00d3RG\u00c3OS QUE PRESTAM ATENDIMENTO AO P\u00daBLICO NO MUNIC\u00cdPIO, TANDO DO PODER EXECUTIVO QUANTO DO PODER LEGISLATIVO, E D\u00c1 OUTRAS PROVID\u00caNCIAS.","numero_ordem":1,"resultado":"","tipo_votacao":1,"votacao_aberta":null,"registro_aberto":null,"sessao_plenaria":9,"materia":28,"tramitacao":null},{"id":8,"__str__":"Ordem do Dia/Expediente: 1 - Projeto de Lei Ordin\u00e1ria n\u00ba 1 de 2018 em 1\u00aa Sess\u00e3o Extraordin\u00e1ria do 1\u00ba Semestre de 2018 da 2\u00aa Sess\u00e3o Legislativa da 18\u00aa Legislatura","metadata":{},"data_ordem":"2018-01-25","observacao":"DENOMINA DE PROFESSORA \u00c1UREA LOPES PITOMBEIRA O CENTRO EDUCACIONAL DE DESENVOLVIMENTO INFANTIL (PR\u00d3-INF\u00c2NCIA DE TEMPO INTEGRAL) LOCALIZADA NO DISTRITO DE CROAT\u00c1 DO MUNIC\u00cdPIO DE S\u00c3O GON\u00c7ALO DO AMARANTE E D\u00c1 OUTRAS PROVID\u00caNCIAS.","numero_ordem":1,"resultado":"","tipo_votacao":1,"votacao_aberta":null,"registro_aberto":null,"sessao_plenaria":6,"materia":22,"tramitacao":null},{"id":2,"__str__":"Ordem do Dia/Expediente: 1 - Veto n\u00ba 2 de 2017 em 14\u00aa Sess\u00e3o Ordin\u00e1ria do 2\u00ba Semestre de 2017 da 1\u00aa Sess\u00e3o Legislativa da 18\u00aa Legislatura","metadata":{},"data_ordem":"2017-12-01","observacao":"VETA O \u00a7 2\u00ba DO ART. 10 DO PROJETO DE LEI N. 019/2017, QUE TRATA DO PLANO PLURIANUAL DO MUNIC\u00cdPIO DE S\u00c3O GON\u00c7ALO DO AMARANTE.","numero_ordem":1,"resultado":"","tipo_votacao":1,"votacao_aberta":null,"registro_aberto":null,"sessao_plenaria":3,"materia":13,"tramitacao":null},{"id":24,"__str__":"Ordem do Dia/Expediente: 1 - Projeto de Lei Ordin\u00e1ria n\u00ba 16 de 2018 em 9\u00aa Sess\u00e3o Ordin\u00e1ria do 1\u00ba Semestre de 2018 da 2\u00aa Sess\u00e3o Legislativa da 18\u00aa Legislatura","metadata":{},"data_ordem":"2018-04-13","observacao":"AUTORIZA A ABERTURA DE CR\u00c9DITO ADICIONAL ESPECIAL AO VIGENTE OR\u00c7AMENTO E D\u00c1 OUTRAS PROVID\u00caNCIAS.","numero_ordem":1,"resultado":"","tipo_votacao":1,"votacao_aberta":null,"registro_aberto":null,"sessao_plenaria":16,"materia":189,"tramitacao":null},{"id":10,"__str__":"Ordem do Dia/Expediente: 1 - Projeto de Lei Ordin\u00e1ria n\u00ba 2 de 2018 em 1\u00aa Sess\u00e3o Ordin\u00e1ria do 1\u00ba Semestre de 2018 da 2\u00aa Sess\u00e3o Legislativa da 18\u00aa Legislatura","metadata":{},"data_ordem":"2018-02-02","observacao":"DISP\u00d5E SOBRE A ABERTURA DE CR\u00c9DITO ADICIONAL ESPECIAL EM FAVOR DA C\u00c2MARA MUNICIPAL DE S\u00c3O GON\u00c7ALO DO AMARANTE NO VALOR DE R$ 210.000,00 E D\u00c1 OUTRAS PROVID\u00caNCIAS.","numero_ordem":1,"resultado":"","tipo_votacao":1,"votacao_aberta":null,"registro_aberto":null,"sessao_plenaria":8,"materia":24,"tramitacao":null}]}