{"pagination":{"links":{"next":"https://sapl.saogoncalodoamarante.ce.leg.br/api/materia/materialegislativa/?page=2","previous":null},"previous_page":null,"next_page":2,"start_index":1,"end_index":10,"total_entries":3558,"total_pages":356,"page":1},"results":[{"id":3450,"__str__":"Parecer Pr\u00e9vio do Tribunal de Contas n\u00ba 71 de 2025","metadata":{},"numero":71,"ano":2025,"numero_protocolo":null,"data_apresentacao":"2025-05-15","tipo_apresentacao":"E","data_publicacao":null,"numero_origem_externa":"","ano_origem_externa":null,"data_origem_externa":null,"apelido":"","dias_prazo":null,"data_fim_prazo":null,"em_tramitacao":true,"polemica":false,"objeto":"","complementar":false,"ementa":"Disp\u00f5e sobre o julgamento das Contas de Governo de 2021, cujo Parecer Pr\u00e9vio est\u00e1 pela aprova\u00e7\u00e3o com ressalvas.","indexacao":"","observacao":"","resultado":"","texto_original":"https://sapl.saogoncalodoamarante.ce.leg.br/media/sapl/public/materialegislativa/2025/3450/ppv_071-2025.pdf","data_ultima_atualizacao":"2025-06-06T10:37:20.294258-03:00","ip":"167.249.16.225","ultima_edicao":"2025-06-06T10:37:20.084405-03:00","tipo":10,"regime_tramitacao":1,"tipo_origem_externa":null,"local_origem_externa":null,"user":42,"anexadas":[],"autores":[26]},{"id":3319,"__str__":"Veto n\u00ba 1 de 2025","metadata":{},"numero":1,"ano":2025,"numero_protocolo":null,"data_apresentacao":"2025-04-04","tipo_apresentacao":"","data_publicacao":null,"numero_origem_externa":"","ano_origem_externa":null,"data_origem_externa":null,"apelido":"","dias_prazo":null,"data_fim_prazo":null,"em_tramitacao":true,"polemica":false,"objeto":"","complementar":false,"ementa":"Veto ao Projeto de Lei N\u00ba19/2025 que disp\u00f5e sobre \"Instituir o Sistema de Den\u00fancia de Maus-tratos Contra os Animais- \"SOS Animal\", e d\u00e1 outras provid\u00eancias.\" de autoria do Vereador Professor Ivan.","indexacao":"","observacao":"","resultado":"","texto_original":"https://sapl.saogoncalodoamarante.ce.leg.br/media/sapl/public/materialegislativa/2025/3319/veto_no01_de_18_de_marco_de_2025.pdf","data_ultima_atualizacao":"2025-04-09T13:18:24.687193-03:00","ip":"167.249.16.225","ultima_edicao":"2025-04-04T12:48:03.610782-03:00","tipo":11,"regime_tramitacao":1,"tipo_origem_externa":null,"local_origem_externa":null,"user":42,"anexadas":[],"autores":[37]},{"id":3306,"__str__":"Projeto de Emenda \u00e0 Lei Org\u00e2nica n\u00ba 1 de 2025","metadata":{},"numero":1,"ano":2025,"numero_protocolo":null,"data_apresentacao":"2025-04-02","tipo_apresentacao":"E","data_publicacao":null,"numero_origem_externa":"","ano_origem_externa":null,"data_origem_externa":null,"apelido":"","dias_prazo":null,"data_fim_prazo":null,"em_tramitacao":false,"polemica":false,"objeto":"","complementar":false,"ementa":"Altera o \u00a7 1\u00b0 do Art. 82. da Lei Org\u00e2nica de S\u00e3o Gon\u00e7alo do Amarante.","indexacao":"","observacao":"","resultado":"","texto_original":"https://sapl.saogoncalodoamarante.ce.leg.br/media/sapl/public/materialegislativa/2025/3306/pelom_001-2025.pdf","data_ultima_atualizacao":"2025-05-22T12:30:16.337965-03:00","ip":"167.249.18.236","ultima_edicao":"2025-05-22T12:07:24.791329-03:00","tipo":9,"regime_tramitacao":1,"tipo_origem_externa":null,"local_origem_externa":null,"user":28,"anexadas":[],"autores":[51]},{"id":2964,"__str__":"Projeto de Lei Complementar n\u00ba 1 de 2025","metadata":{},"numero":1,"ano":2025,"numero_protocolo":null,"data_apresentacao":"2025-01-07","tipo_apresentacao":"E","data_publicacao":null,"numero_origem_externa":"","ano_origem_externa":null,"data_origem_externa":null,"apelido":"","dias_prazo":null,"data_fim_prazo":null,"em_tramitacao":false,"polemica":false,"objeto":"","complementar":false,"ementa":"Altera dispositivos da Lei Complementar n. 006, de 23 de dezembro de 2013, que disp\u00f5e sobre o C\u00f3digo Tribut\u00e1rio do Munic\u00edpio de S\u00e3o Gon\u00e7alo do Amarante (CE).","indexacao":"","observacao":"","resultado":"","texto_original":"https://sapl.saogoncalodoamarante.ce.leg.br/media/sapl/public/materialegislativa/2025/2964/plc_001-2025.pdf","data_ultima_atualizacao":"2025-01-13T12:14:44.135214-03:00","ip":"189.84.125.65","ultima_edicao":"2025-01-13T12:14:43.913351-03:00","tipo":5,"regime_tramitacao":2,"tipo_origem_externa":null,"local_origem_externa":null,"user":28,"anexadas":[],"autores":[37]},{"id":3146,"__str__":"Projeto de Lei Complementar n\u00ba 2 de 2025","metadata":{},"numero":2,"ano":2025,"numero_protocolo":null,"data_apresentacao":"2025-02-12","tipo_apresentacao":"E","data_publicacao":null,"numero_origem_externa":"","ano_origem_externa":null,"data_origem_externa":null,"apelido":"","dias_prazo":null,"data_fim_prazo":null,"em_tramitacao":false,"polemica":false,"objeto":"","complementar":false,"ementa":"Altera a Lei Complementar Municipal N\u00ba 06/2013, para reduzir a al\u00edquota do imposto sobre servi\u00e7o de qualquer natureza (ISS) incidente sobre os servi\u00e7os prestados pela rede hoteleira localizada no Munic\u00edpio de S\u00e3o Gon\u00e7alo do Amarante, e d\u00e1 outras provid\u00eancias.","indexacao":"","observacao":"","resultado":"","texto_original":"https://sapl.saogoncalodoamarante.ce.leg.br/media/sapl/public/materialegislativa/2025/3146/plc_002-2025.pdf","data_ultima_atualizacao":"2025-02-13T11:44:22.410769-03:00","ip":"167.249.16.225","ultima_edicao":"2025-02-13T11:44:22.194582-03:00","tipo":5,"regime_tramitacao":2,"tipo_origem_externa":null,"local_origem_externa":null,"user":28,"anexadas":[],"autores":[37]},{"id":3402,"__str__":"Projeto de Lei Complementar n\u00ba 3 de 2025","metadata":{},"numero":3,"ano":2025,"numero_protocolo":null,"data_apresentacao":"2025-05-07","tipo_apresentacao":"E","data_publicacao":null,"numero_origem_externa":"","ano_origem_externa":null,"data_origem_externa":null,"apelido":"","dias_prazo":null,"data_fim_prazo":null,"em_tramitacao":false,"polemica":false,"objeto":"","complementar":false,"ementa":"Institui e disciplina o Programa de Recupera\u00e7\u00e3o de Cr\u00e9ditos Tribut\u00e1rios no Munic\u00edpio de S\u00e3o Gon\u00e7alo do Amarante-CE (REFIS) e d\u00e1 outras provid\u00eancias.","indexacao":"","observacao":"","resultado":"","texto_original":"https://sapl.saogoncalodoamarante.ce.leg.br/media/sapl/public/materialegislativa/2025/3402/plc_003-2025.pdf","data_ultima_atualizacao":"2025-05-22T12:37:31.225276-03:00","ip":"167.249.18.236","ultima_edicao":"2025-05-22T12:07:37.773671-03:00","tipo":5,"regime_tramitacao":1,"tipo_origem_externa":null,"local_origem_externa":null,"user":28,"anexadas":[],"autores":[37]},{"id":2961,"__str__":"Projeto de Lei Ordin\u00e1ria n\u00ba 1 de 2025","metadata":{},"numero":1,"ano":2025,"numero_protocolo":null,"data_apresentacao":"2025-01-07","tipo_apresentacao":"E","data_publicacao":null,"numero_origem_externa":"","ano_origem_externa":null,"data_origem_externa":null,"apelido":"","dias_prazo":null,"data_fim_prazo":null,"em_tramitacao":false,"polemica":false,"objeto":"","complementar":false,"ementa":"Estabelece os par\u00e2metros para aplica\u00e7\u00e3o de recursos oriundos do Componente de Qualidade, do cofinanciamento federal do piso de aten\u00e7\u00e3o prim\u00e1ria \u00e1 sa\u00fade, institui a Gratifica\u00e7\u00e3o por Desempenho aos profissionais da Secretaria Municipal de Sa\u00fade que atuam na Aten\u00e7\u00e3o Prim\u00e1ria \u00e1 Sa\u00fade, e adota outras provid\u00eancias.","indexacao":"","observacao":"","resultado":"","texto_original":"https://sapl.saogoncalodoamarante.ce.leg.br/media/sapl/public/materialegislativa/2025/2961/pl_001-2025.pdf","data_ultima_atualizacao":"2025-01-13T12:10:07.913295-03:00","ip":"189.84.125.65","ultima_edicao":"2025-01-13T12:10:07.480345-03:00","tipo":1,"regime_tramitacao":2,"tipo_origem_externa":null,"local_origem_externa":null,"user":28,"anexadas":[],"autores":[37]},{"id":2962,"__str__":"Projeto de Lei Ordin\u00e1ria n\u00ba 2 de 2025","metadata":{},"numero":2,"ano":2025,"numero_protocolo":null,"data_apresentacao":"2025-01-07","tipo_apresentacao":"E","data_publicacao":null,"numero_origem_externa":"","ano_origem_externa":null,"data_origem_externa":null,"apelido":"","dias_prazo":null,"data_fim_prazo":null,"em_tramitacao":false,"polemica":false,"objeto":"","complementar":false,"ementa":"Disp\u00f5e sobre a concess\u00e3o da Gratifica\u00e7\u00e3o de Incentivo ao Trabalho com Qualidade (GITQ) aos servidores p\u00fablicos da Secretaria da Sa\u00fade do Munic\u00edpio de S\u00e3o Gon\u00e7alo do Amarante e d\u00e1 outras provid\u00eancias.","indexacao":"","observacao":"","resultado":"","texto_original":"https://sapl.saogoncalodoamarante.ce.leg.br/media/sapl/public/materialegislativa/2025/2962/pl_002-2025.pdf","data_ultima_atualizacao":"2025-01-13T12:10:12.849960-03:00","ip":"189.84.125.65","ultima_edicao":"2025-01-13T12:10:12.577805-03:00","tipo":1,"regime_tramitacao":2,"tipo_origem_externa":null,"local_origem_externa":null,"user":28,"anexadas":[],"autores":[37]},{"id":2963,"__str__":"Projeto de Lei Ordin\u00e1ria n\u00ba 3 de 2025","metadata":{},"numero":3,"ano":2025,"numero_protocolo":null,"data_apresentacao":"2025-01-07","tipo_apresentacao":"E","data_publicacao":null,"numero_origem_externa":"","ano_origem_externa":null,"data_origem_externa":null,"apelido":"","dias_prazo":null,"data_fim_prazo":null,"em_tramitacao":false,"polemica":false,"objeto":"","complementar":false,"ementa":"Estabelece novo sal\u00e1rio base para o cargo de Auditor Fiscal da Receita Municipal e de Procurador Municipal, altera o Art. 1\u00ba da Lei N\u00ba 659, de 27 de abril de 2000, revoga o Art. 4\u00ba da Lei N\u00ba 1.834, de 06 de dezembro de 2023, e d\u00e1 outras provid\u00eancias.","indexacao":"","observacao":"","resultado":"","texto_original":"https://sapl.saogoncalodoamarante.ce.leg.br/media/sapl/public/materialegislativa/2025/2963/pl_003-2025.pdf","data_ultima_atualizacao":"2025-01-13T12:10:24.361678-03:00","ip":"189.84.125.65","ultima_edicao":"2025-01-13T12:10:23.624041-03:00","tipo":1,"regime_tramitacao":2,"tipo_origem_externa":null,"local_origem_externa":null,"user":28,"anexadas":[],"autores":[37]},{"id":2965,"__str__":"Projeto de Lei Ordin\u00e1ria n\u00ba 4 de 2025","metadata":{},"numero":4,"ano":2025,"numero_protocolo":null,"data_apresentacao":"2025-01-07","tipo_apresentacao":"E","data_publicacao":null,"numero_origem_externa":"","ano_origem_externa":null,"data_origem_externa":null,"apelido":"","dias_prazo":null,"data_fim_prazo":null,"em_tramitacao":false,"polemica":false,"objeto":"","complementar":false,"ementa":"Disp\u00f5e sobre a atualiza\u00e7\u00e3o do Sal\u00e1rio M\u00ednimo no \u00e2mbito do Munic\u00edpio de S\u00e3o Gon\u00e7alo do Amarante/CE, e adota outras provid\u00eancias.","indexacao":"","observacao":"","resultado":"","texto_original":"https://sapl.saogoncalodoamarante.ce.leg.br/media/sapl/public/materialegislativa/2025/2965/pl_004-2025.pdf","data_ultima_atualizacao":"2025-01-13T12:10:29.896005-03:00","ip":"189.84.125.65","ultima_edicao":"2025-01-13T12:10:29.629718-03:00","tipo":1,"regime_tramitacao":2,"tipo_origem_externa":null,"local_origem_externa":null,"user":28,"anexadas":[],"autores":[37]}]}