{"pagination":{"links":{"next":"https://sapl.saogoncalodoamarante.ce.leg.br/api/materia/statustramitacao/?page=2","previous":null},"previous_page":null,"next_page":2,"start_index":1,"end_index":10,"total_entries":48,"total_pages":5,"page":1},"results":[{"id":48,"__str__":"Adiada discuss\u00e3o e vota\u00e7\u00e3o.","metadata":{},"sigla":"ADIAVOTAC","descricao":"Adiada discuss\u00e3o e vota\u00e7\u00e3o.","indicador":"R"},{"id":30,"__str__":"Aguardando a inclus\u00e3o na ordem do dia","metadata":{},"sigla":"AGORDIA","descricao":"Aguardando a inclus\u00e3o na ordem do dia","indicador":"R"},{"id":40,"__str__":"Aguardando assinatura da mensagem sobre o veto","metadata":{},"sigla":"AGMENSVET","descricao":"Aguardando assinatura da mensagem sobre o veto","indicador":"R"},{"id":16,"__str__":"Aguardando assinatura do aut\u00f3grafo","metadata":{},"sigla":"AGAUTOGR","descricao":"Aguardando assinatura do aut\u00f3grafo","indicador":"R"},{"id":2,"__str__":"Aguardando emiss\u00e3o de parecer da comiss\u00e3o","metadata":{},"sigla":"AGPARECER","descricao":"Aguardando emiss\u00e3o de parecer da comiss\u00e3o","indicador":"R"},{"id":23,"__str__":"Aguardando promulga\u00e7\u00e3o da lei","metadata":{},"sigla":"AGPROMLEI","descricao":"Aguardando promulga\u00e7\u00e3o da lei","indicador":"F"},{"id":43,"__str__":"Aguardando promulga\u00e7\u00e3o da norma jur\u00eddica","metadata":{},"sigla":"AGPROMNOR","descricao":"Aguardando promulga\u00e7\u00e3o da norma jur\u00eddica","indicador":"F"},{"id":45,"__str__":"Aguardando promulga\u00e7\u00e3o de lei com veto rejeitado","metadata":{},"sigla":"AGPROMVET","descricao":"Aguardando promulga\u00e7\u00e3o de lei com veto rejeitado","indicador":"R"},{"id":17,"__str__":"Aguardando san\u00e7\u00e3o governamental","metadata":{},"sigla":"AGSANCAO","descricao":"Aguardando san\u00e7\u00e3o governamental","indicador":"F"},{"id":44,"__str__":"Norma promulgada","metadata":{},"sigla":"NORMPROMUL","descricao":"Norma promulgada","indicador":"F"}]}