{"pagination":{"links":{"next":null,"previous":"https://sapl.saogoncalodoamarante.ce.leg.br/api/materia/tipomaterialegislativa/"},"previous_page":1,"next_page":null,"start_index":11,"end_index":14,"total_entries":14,"total_pages":2,"page":2},"results":[{"id":12,"__str__":"Recurso","metadata":{},"sigla":"REC","descricao":"Recurso","num_automatica":false,"quorum_minimo_votacao":null,"sequencia_numeracao":"A","sequencia_regimental":11},{"id":13,"__str__":"Requerimento de Urg\u00eancia Especial","metadata":{},"sigla":"REQUR","descricao":"Requerimento de Urg\u00eancia Especial","num_automatica":false,"quorum_minimo_votacao":null,"sequencia_numeracao":"A","sequencia_regimental":12},{"id":14,"__str__":"Requerimento de CPI","metadata":{},"sigla":"RECPI","descricao":"Requerimento de CPI","num_automatica":false,"quorum_minimo_votacao":null,"sequencia_numeracao":"A","sequencia_regimental":13},{"id":15,"__str__":"ATA","metadata":{},"sigla":"ATA","descricao":"ATA","num_automatica":false,"quorum_minimo_votacao":null,"sequencia_numeracao":"A","sequencia_regimental":14}]}